WK 14 IP
…
df2

## # A tibble: 1,000 x 2
##    time                value
##    <dttm>              <dbl>
##  1 2019-01-05 03:00:00     1
##  2 2019-03-08 03:00:00     1
##  3 2019-03-03 03:00:00     1
##  4 2019-01-27 03:00:00     1
##  5 2019-02-08 03:00:00     1
##  6 2019-03-25 03:00:00     1
##  7 2019-02-25 03:00:00     1
##  8 2019-02-24 03:00:00     1
##  9 2019-01-10 03:00:00     1
## 10 2019-02-20 03:00:00     1
## # ... with 990 more rows

sales <- df1[,c(2)]
sales

## # A tibble: 1,000 x 1
##    Sales
##    <dbl>
##  1 549. 
##  2  80.2
##  3 341. 
##  4 489. 
##  5 634. 
##  6 628. 
##  7 434. 
##  8 772. 
##  9  76.1
## 10 173. 
## # ... with 990 more rows
…
